<?xml version="1.0" encoding="UTF-8"?>
<session version="1.0">
<refactoring accessors="true" comment="Delete element from project &apos;evaForm_3&apos;&#x0D;&#x0A;- Original project: &apos;evaForm_3&apos;&#x0D;&#x0A;- Original element: &apos;evaForm_3.registroVideo.java&apos;" description="Delete element" element1="/src&lt;evaForm_3{registroVideo.java" elements="1" flags="589830" id="org.eclipse.jdt.ui.delete" resources="0" stamp="1449339341518" subPackages="false" version="1.0"/>
</session>